name="AfterSalesService.apk" info_1="737bfa449bcb3eda3736a87d00cca982" info_2="65b55f10bf2d77dc8a5aa58d8d8a18d0" location="app/AfterSalesService/AfterSalesService.apk"
name="AssistantScreen.apk" info_1="737bfa449bcb3eda3736a87d00cca982" info_2="65b55f10bf2d77dc8a5aa58d8d8a18d0" location="app/AssistantScreen/AssistantScreen.apk"
name="BackupAndRestore.apk" info_1="737bfa449bcb3eda3736a87d00cca982" info_2="65b55f10bf2d77dc8a5aa58d8d8a18d0" location="del-app/BackupAndRestore/BackupAndRestore.apk"
name="BlackListApp.apk" info_1="58a0b8d272811400de934ba4dfb1d91f" info_2="0b396ac242a28356b1c546038806e916" location="priv-app/BlackListApp/BlackListApp.apk"
name="Calculator2.apk" info_1="737bfa449bcb3eda3736a87d00cca982" info_2="65b55f10bf2d77dc8a5aa58d8d8a18d0" location="app/Calculator2/Calculator2.apk"
name="ChildrenSpace.apk" info_1="737bfa449bcb3eda3736a87d00cca982" info_2="65b55f10bf2d77dc8a5aa58d8d8a18d0" location="app/ChildrenSpace/ChildrenSpace.apk"
name="Clock.apk" info_1="737bfa449bcb3eda3736a87d00cca982" info_2="65b55f10bf2d77dc8a5aa58d8d8a18d0" location="app/Clock/Clock.apk"
name="ColorLocationProxy.apk" info_1="737bfa449bcb3eda3736a87d00cca982" info_2="65b55f10bf2d77dc8a5aa58d8d8a18d0" location="app/ColorLocationProxy/ColorLocationProxy.apk"
name="ColorScreenRecorder.apk" info_1="737bfa449bcb3eda3736a87d00cca982" info_2="65b55f10bf2d77dc8a5aa58d8d8a18d0" location="priv-app/ColorScreenRecorder/ColorScreenRecorder.apk"
name="ColorScreenshot.apk" info_1="737bfa449bcb3eda3736a87d00cca982" info_2="65b55f10bf2d77dc8a5aa58d8d8a18d0" location="priv-app/ColorScreenshot/ColorScreenshot.apk"
name="ColorUIEngine.apk" info_1="737bfa449bcb3eda3736a87d00cca982" info_2="65b55f10bf2d77dc8a5aa58d8d8a18d0" location="app/ColorUIEngine/ColorUIEngine.apk"
name="ColorfulEngine.apk" info_1="c3833dbad48a0fd077a60142e151e720" info_2="d204c659939c729c26bedd6131df6339" location="priv-app/ColorfulEngine/ColorfulEngine.apk"
name="Contacts.apk" info_1="8b19a2e0a88f8572ed4e98ba6f592bdd" info_2="372030bebbf76511c47d222188647f6f" location="priv-app/Contacts/Contacts.apk"
name="FileEncryption.apk" info_1="737bfa449bcb3eda3736a87d00cca982" info_2="65b55f10bf2d77dc8a5aa58d8d8a18d0" location="app/FileEncryption/FileEncryption.apk"
name="FileManager.apk" info_1="737bfa449bcb3eda3736a87d00cca982" info_2="65b55f10bf2d77dc8a5aa58d8d8a18d0" location="app/FileManager/FileManager.apk"
name="FloatAssistant.apk" info_1="737bfa449bcb3eda3736a87d00cca982" info_2="65b55f10bf2d77dc8a5aa58d8d8a18d0" location="app/FloatAssistant/FloatAssistant.apk"
name="FocusMode.apk" info_1="737bfa449bcb3eda3736a87d00cca982" info_2="65b55f10bf2d77dc8a5aa58d8d8a18d0" location="app/FocusMode/FocusMode.apk"
name="GameSpace.apk" info_1="737bfa449bcb3eda3736a87d00cca982" info_2="65b55f10bf2d77dc8a5aa58d8d8a18d0" location="app/GameSpace/GameSpace.apk"
name="GameSpaceUI.apk" info_1="052a91686dcda693ea07232032b8dc25" info_2="13c91d742331110dc5816bd4bee6a6fa" location="del-app/GameSpaceUI/GameSpaceUI.apk"
name="HealthCheck.apk" info_1="737bfa449bcb3eda3736a87d00cca982" info_2="65b55f10bf2d77dc8a5aa58d8d8a18d0" location="app/HealthCheck/HealthCheck.apk"
name="HeyCast.apk" info_1="609343c51bbce9849561f1d6d36983e7" info_2="03662621107229cc37fa70d5b62549af" location="priv-app/HeyCast/HeyCast.apk"
name="InCallUI.apk" info_1="609343c51bbce9849561f1d6d36983e7" info_2="03662621107229cc37fa70d5b62549af" location="priv-app/InCallUI/InCallUI.apk"
name="Karaoke.apk" info_1="052a91686dcda693ea07232032b8dc25" info_2="13c91d742331110dc5816bd4bee6a6fa" location="app/Karaoke/Karaoke.apk"
name="KeKePay.apk" info_1="7efcaa228a1cc8cfd2addabc5f902f12" info_2="6bca73177b5dbddff77ad7c64f350939" location="app/KeKePay/KeKePay.apk"
name="KeKeUserCenter.apk" info_1="26516fdd66f7b16a47a17403f06e49c6" info_2="f112f4aaef3f6137e39ab5cbc98139df" location="priv-app/KeKeUserCenter/KeKeUserCenter.apk"
name="LockAssistant.apk" info_1="737bfa449bcb3eda3736a87d00cca982" info_2="65b55f10bf2d77dc8a5aa58d8d8a18d0" location="priv-app/LockAssistant/LockAssistant.apk"
name="MCS.apk" info_1="609343c51bbce9849561f1d6d36983e7" info_2="03662621107229cc37fa70d5b62549af" location="app/MCS/MCS.apk"
name="MDSService.apk" info_1="737bfa449bcb3eda3736a87d00cca982" info_2="65b55f10bf2d77dc8a5aa58d8d8a18d0" location="priv-app/MDSService/MDSService.apk"
name="Mms.apk" info_1="737bfa449bcb3eda3736a87d00cca982" info_2="65b55f10bf2d77dc8a5aa58d8d8a18d0" location="priv-app/Mms/Mms.apk"
name="MmsServiceUaProfUrlPluginStyleOne.apk" info_1="609343c51bbce9849561f1d6d36983e7" info_2="03662621107229cc37fa70d5b62549af" location="plugin/MmsServiceUaProfUrlPluginStyleOne/MmsServiceUaProfUrlPluginStyleOne.apk"
name="Music.apk" info_1="10833051547c37c794b7895b6beeadb5" info_2="87a731859a65c419a8ddc6c657dc4bff" location="app/Music/Music.apk"
name="NewSoundRecorder.apk" info_1="737bfa449bcb3eda3736a87d00cca982" info_2="65b55f10bf2d77dc8a5aa58d8d8a18d0" location="app/NewSoundRecorder/NewSoundRecorder.apk"
name="NumberRecognition.apk" info_1="737bfa449bcb3eda3736a87d00cca982" info_2="65b55f10bf2d77dc8a5aa58d8d8a18d0" location="priv-app/NumberRecognition/NumberRecognition.apk"
name="OShare.apk" info_1="737bfa449bcb3eda3736a87d00cca982" info_2="65b55f10bf2d77dc8a5aa58d8d8a18d0" location="priv-app/OShare/OShare.apk"
name="Omacp.apk" info_1="737bfa449bcb3eda3736a87d00cca982" info_2="65b55f10bf2d77dc8a5aa58d8d8a18d0" location="priv-app/Omacp/Omacp.apk"
name="OneKeyLockScreen.apk" info_1="737bfa449bcb3eda3736a87d00cca982" info_2="65b55f10bf2d77dc8a5aa58d8d8a18d0" location="del-app/OneKeyLockScreen/OneKeyLockScreen.apk"
name="OpenCapabilityService.apk" info_1="737bfa449bcb3eda3736a87d00cca982" info_2="65b55f10bf2d77dc8a5aa58d8d8a18d0" location="app/OpenCapabilityService/OpenCapabilityService.apk"
name="OpenID.apk" info_1="737bfa449bcb3eda3736a87d00cca982" info_2="65b55f10bf2d77dc8a5aa58d8d8a18d0" location="app/OpenID/OpenID.apk"
name="OppoBootReg.apk" info_1="737bfa449bcb3eda3736a87d00cca982" info_2="65b55f10bf2d77dc8a5aa58d8d8a18d0" location="priv-app/OppoBootReg/OppoBootReg.apk"
name="OppoCamera.apk" info_1="737bfa449bcb3eda3736a87d00cca982" info_2="65b55f10bf2d77dc8a5aa58d8d8a18d0" location="app/OppoCamera/OppoCamera.apk"
name="OppoCompass2.apk" info_1="737bfa449bcb3eda3736a87d00cca982" info_2="65b55f10bf2d77dc8a5aa58d8d8a18d0" location="app/OppoCompass2/OppoCompass2.apk"
name="OppoDCS.apk" info_1="737bfa449bcb3eda3736a87d00cca982" info_2="65b55f10bf2d77dc8a5aa58d8d8a18d0" location="priv-app/OppoDCS/OppoDCS.apk"
name="OppoGallery2.apk" info_1="737bfa449bcb3eda3736a87d00cca982" info_2="65b55f10bf2d77dc8a5aa58d8d8a18d0" location="priv-app/OppoGallery2/OppoGallery2.apk"
name="OppoOperationManualExp.apk" info_1="737bfa449bcb3eda3736a87d00cca982" info_2="65b55f10bf2d77dc8a5aa58d8d8a18d0" location="app/OppoOperationManualExp/OppoOperationManualExp.apk"
name="OppoPhoneActivation.apk" info_1="737bfa449bcb3eda3736a87d00cca982" info_2="65b55f10bf2d77dc8a5aa58d8d8a18d0" location="app/OppoPhoneActivation/OppoPhoneActivation.apk"
name="OppoQualityProtect.apk" info_1="609343c51bbce9849561f1d6d36983e7" info_2="03662621107229cc37fa70d5b62549af" location="app/OppoQualityProtect/OppoQualityProtect.apk"
name="OppoSecurityKeyboard.apk" info_1="737bfa449bcb3eda3736a87d00cca982" info_2="65b55f10bf2d77dc8a5aa58d8d8a18d0" location="app/OppoSecurityKeyboard/OppoSecurityKeyboard.apk"
name="OppoTZUpdate.apk" info_1="609343c51bbce9849561f1d6d36983e7" info_2="03662621107229cc37fa70d5b62549af" location="app/OppoTZUpdate/OppoTZUpdate.apk"
name="OppoVideoEditor.apk" info_1="737bfa449bcb3eda3736a87d00cca982" info_2="65b55f10bf2d77dc8a5aa58d8d8a18d0" location="del-app/OppoVideoEditor/OppoVideoEditor.apk"
name="OppoWeather2.apk" info_1="737bfa449bcb3eda3736a87d00cca982" info_2="65b55f10bf2d77dc8a5aa58d8d8a18d0" location="app/OppoWeather2/OppoWeather2.apk"
name="OppoWeatherService.apk" info_1="6c4ff098f18677245e832d8fca6df024" info_2="2be1cdcac43ae9e4812b76753e66e5f4" location="app/OppoWeatherService/OppoWeatherService.apk"
name="PhoneNOAreaInquireProvider.apk" info_1="8b19a2e0a88f8572ed4e98ba6f592bdd" info_2="372030bebbf76511c47d222188647f6f" location="app/PhoneNOAreaInquireProvider/PhoneNOAreaInquireProvider.apk"
name="Pictorial.apk" info_1="0c5bc8d046505e1121561b09b149a8f0" info_2="6e5e58d423775eb7f2c54d4b37204772" location="app/Pictorial/Pictorial.apk"
name="RomUpdate.apk" info_1="737bfa449bcb3eda3736a87d00cca982" info_2="65b55f10bf2d77dc8a5aa58d8d8a18d0" location="app/RomUpdate/RomUpdate.apk"
name="SOSHelper.apk" info_1="737bfa449bcb3eda3736a87d00cca982" info_2="65b55f10bf2d77dc8a5aa58d8d8a18d0" location="priv-app/SOSHelper/SOSHelper.apk"
name="SceneMode.apk" info_1="737bfa449bcb3eda3736a87d00cca982" info_2="65b55f10bf2d77dc8a5aa58d8d8a18d0" location="app/SceneMode/SceneMode.apk"
name="SceneService.apk" info_1="737bfa449bcb3eda3736a87d00cca982" info_2="65b55f10bf2d77dc8a5aa58d8d8a18d0" location="priv-app/SceneService/SceneService.apk"
name="SecurePay.apk" info_1="737bfa449bcb3eda3736a87d00cca982" info_2="65b55f10bf2d77dc8a5aa58d8d8a18d0" location="app/SecurePay/SecurePay.apk"
name="SecurityAnalysis.apk" info_1="737bfa449bcb3eda3736a87d00cca982" info_2="65b55f10bf2d77dc8a5aa58d8d8a18d0" location="app/SecurityAnalysis/SecurityAnalysis.apk"
name="SmartDrive.apk" info_1="58a0b8d272811400de934ba4dfb1d91f" info_2="0b396ac242a28356b1c546038806e916" location="priv-app/SmartDrive/SmartDrive.apk"
name="SmartSideBar.apk" info_1="737bfa449bcb3eda3736a87d00cca982" info_2="65b55f10bf2d77dc8a5aa58d8d8a18d0" location="app/SmartSideBar/SmartSideBar.apk"
name="SystemClone.apk" info_1="737bfa449bcb3eda3736a87d00cca982" info_2="65b55f10bf2d77dc8a5aa58d8d8a18d0" location="priv-app/SystemClone/SystemClone.apk"
name="TeleServiceCarrierConfig.apk" info_1="609343c51bbce9849561f1d6d36983e7" info_2="03662621107229cc37fa70d5b62549af" location="plugin/TeleServiceCarrierConfig/TeleServiceCarrierConfig.apk"
name="VideoGallery.apk" info_1="4d925563f964595671c5647734160375" info_2="381d4f5b9e3b3310376a9e241cf3b9d5" location="priv-app/VideoGallery/VideoGallery.apk"
name="Wallpapers.apk" info_1="6c4ff098f18677245e832d8fca6df024" info_2="2be1cdcac43ae9e4812b76753e66e5f4" location="app/Wallpapers/Wallpapers.apk"
name="WellbeingAssistant.apk" info_1="737bfa449bcb3eda3736a87d00cca982" info_2="65b55f10bf2d77dc8a5aa58d8d8a18d0" location="app/WellbeingAssistant/WellbeingAssistant.apk"
name="realmeMovieShot.apk" info_1="737bfa449bcb3eda3736a87d00cca982" info_2="65b55f10bf2d77dc8a5aa58d8d8a18d0" location="app/realmeMovieShot/realmeMovieShot.apk"
